<svg width="42" height="42" viewBox="0 0 42 42" fill="none" xmlns="http://www.w3.org/2000/svg">
<circle cx="21" cy="21" r="21" fill="#205C91"/>
<path fill-rule="evenodd" clip-rule="evenodd" d="M21.0025 21.8007C23.9027 21.8007 26.2538 19.3829 26.2538 16.4004C26.2538 13.4178 23.9027 11 21.0025 11C18.1023 11 15.7512 13.4178 15.7512 16.4004C15.7512 19.3829 18.1023 21.8007 21.0025 21.8007ZM25.5098 24.8434C27.1795 25.1815 28.2696 25.7331 28.7367 26.6228C29.0876 27.3171 29.0876 28.1437 28.7367 28.8381C28.2696 29.7278 27.2228 30.3149 25.4925 30.6174C24.7215 30.7729 23.9411 30.874 23.1567 30.9199C22.43 31 21.7033 31 20.9679 31H19.6443C19.3674 30.9644 19.0992 30.9466 18.8397 30.9466C18.0553 30.9063 17.2747 30.8082 16.5039 30.653C14.8342 30.3327 13.7441 29.7633 13.277 28.8737C13.0966 28.529 13.0015 28.144 13.0001 27.7527C12.9964 27.3589 13.0886 26.9705 13.2683 26.6228C13.7268 25.7331 14.8169 25.1548 16.5039 24.8434C17.2781 24.6915 18.0613 24.5934 18.8484 24.5498C20.288 24.4338 21.7343 24.4338 23.174 24.5498C23.958 24.5955 24.7382 24.6936 25.5098 24.8434Z" fill="white"/>
</svg>
