<svg width="24" height="24" viewBox="0 0 24 24" fill="none" xmlns="http://www.w3.org/2000/svg">
<path fill-rule="evenodd" clip-rule="evenodd" d="M21 12C20.4477 12 20 12.4477 20 13V19C20 19.5523 19.5523 20 19 20H5C4.44772 20 4 19.5523 4 19V5C4 4.44772 4.44772 4 5 4H11C11.5523 4 12 3.55228 12 3C12 2.44772 11.5523 2 11 2H5C3.34315 2 2 3.34315 2 5V19C2 20.6569 3.34315 22 5 22H19C20.6569 22 22 20.6569 22 19V13C22 12.4477 21.5523 12 21 12ZM6 12.76V17C6 17.5523 6.44772 18 7 18H11.24C11.5058 18.0015 11.7613 17.8972 11.95 17.71L18.87 10.78L21.71 8C21.8993 7.81223 22.0058 7.55664 22.0058 7.29C22.0058 7.02336 21.8993 6.76777 21.71 6.58L17.47 2.29C17.2822 2.10069 17.0266 1.9942 16.76 1.9942C16.4934 1.9942 16.2378 2.10069 16.05 2.29L13.23 5.12L6.29 12.05C6.10281 12.2387 5.99846 12.4942 6 12.76ZM16.76 4.41L19.59 7.24L18.17 8.66L15.34 5.83L16.76 4.41ZM8 13.17L13.93 7.24L16.76 10.07L10.83 16H8V13.17Z" fill="#42526E"/>
</svg>
